^C:\USERS\KSIDOROV\DESKTOP\CONSOLEAPPLICATION1\CONSOLEAPPLICATION1\CONSOLEAPPLICATION1.CPP
C:\USERS\KSIDOROV\DESKTOP\CONSOLEAPPLICATION1\CONSOLEAPPLICATION1\X64\DEBUG\VC143.PDB
C:\USERS\KSIDOROV\DESKTOP\CONSOLEAPPLICATION1\CONSOLEAPPLICATION1\X64\DEBUG\VC143.IDB
C:\USERS\KSIDOROV\DESKTOP\CONSOLEAPPLICATION1\CONSOLEAPPLICATION1\X64\DEBUG\CONSOLEAPPLICATION1.OBJ
